{
 "autoname": "field:zone_name",
 "creation": "2021-08-06 23:43:45.357341",
 "doctype": "DocType",
 "editable_grid": 1,
 "engine": "InnoDB",
 "field_order": [
  "zone_name",
  "warehouse",
  "locations"
 ],
 "fields": [
  {
   "fieldname": "warehouse",
   "fieldtype": "Link",
   "in_list_view": 1,
   "label": "Warehouse",
   "options": "Warehouse",
   "reqd": 1
  },
  {
   "depends_on": "eval:!doc.__islocal",
   "fieldname": "locations",
   "fieldtype": "Table MultiSelect",
   "label": "Bin Locations",
   "options": "Bin Location"
  },
  {
   "fieldname": "zone_name",
   "fieldtype": "Data",
   "label": "Zone Name",
   "reqd": 1,
   "unique": 1
  }
 ],
 "modified": "2021-08-11 23:44:42.724985",
 "modified_by": "Administrator",
 "module": "DSR",
 "name": "Zone Location",
 "owner": "Administrator",
 "permissions": [
  {
   "create": 1,
   "delete": 1,
   "email": 1,
   "export": 1,
   "print": 1,
   "read": 1,
   "report": 1,
   "role": "System Manager",
   "share": 1,
   "write": 1
  },
  {
   "create": 1,
   "delete": 1,
   "email": 1,
   "export": 1,
   "print": 1,
   "read": 1,
   "report": 1,
   "role": "Stock Manager",
   "share": 1,
   "write": 1
  },
  {
   "email": 1,
   "export": 1,
   "print": 1,
   "read": 1,
   "report": 1,
   "role": "Stock User",
   "share": 1
  },
  {
   "email": 1,
   "export": 1,
   "print": 1,
   "read": 1,
   "report": 1,
   "role": "Item Manager",
   "share": 1
  }
 ],
 "sort_field": "modified",
 "sort_order": "DESC",
 "track_changes": 1
}